^C:\USERS\ASLGU\DOCUMENTS\VISUAL STUDIO 2017\PROJECTS\MULTIPLEXER\MULTIPLEXER\DEBUG\MULTIPLEXER.OBJ|C:\USERS\ASLGU\DOCUMENTS\VISUAL STUDIO 2017\PROJECTS\MULTIPLEXER\MULTIPLEXER\DEBUG\STDAFX.OBJ
C:\USERS\ASLGU\DOCUMENTS\VISUAL STUDIO 2017\PROJECTS\MULTIPLEXER\DEBUG\MULTIPLEXER.ILK
C:\USERS\ASLGU\DOCUMENTS\VISUAL STUDIO 2017\PROJECTS\MULTIPLEXER\DEBUG\MULTIPLEXER.EXE
C:\USERS\ASLGU\DOCUMENTS\VISUAL STUDIO 2017\PROJECTS\MULTIPLEXER\DEBUG\MULTIPLEXER.PDB
