^C:\USERS\ASLGU\DOCUMENTS\VISUAL STUDIO 2017\PROJECTS\MULTIPLEXER\MULTIPLEXER\MULTIPLEXER.CPP|C:\USERS\ASLGU\DOCUMENTS\VISUAL STUDIO 2017\PROJECTS\MULTIPLEXER\MULTIPLEXER\STDAFX.CPP
C:\USERS\ASLGU\DOCUMENTS\VISUAL STUDIO 2017\PROJECTS\MULTIPLEXER\MULTIPLEXER\X64\DEBUG\VC141.PDB
C:\USERS\ASLGU\DOCUMENTS\VISUAL STUDIO 2017\PROJECTS\MULTIPLEXER\MULTIPLEXER\X64\DEBUG\VC141.IDB
C:\USERS\ASLGU\DOCUMENTS\VISUAL STUDIO 2017\PROJECTS\MULTIPLEXER\MULTIPLEXER\X64\DEBUG\MULTIPLEXER.OBJ
C:\USERS\ASLGU\DOCUMENTS\VISUAL STUDIO 2017\PROJECTS\MULTIPLEXER\MULTIPLEXER\X64\DEBUG\STDAFX.OBJ
^C:\USERS\ASLGU\DOCUMENTS\VISUAL STUDIO 2017\PROJECTS\MULTIPLEXER\MULTIPLEXER\MULTIPLEXER.CPP
C:\USERS\ASLGU\DOCUMENTS\VISUAL STUDIO 2017\PROJECTS\MULTIPLEXER\MULTIPLEXER\X64\DEBUG\VC141.PDB
C:\USERS\ASLGU\DOCUMENTS\VISUAL STUDIO 2017\PROJECTS\MULTIPLEXER\MULTIPLEXER\X64\DEBUG\VC141.IDB
C:\USERS\ASLGU\DOCUMENTS\VISUAL STUDIO 2017\PROJECTS\MULTIPLEXER\MULTIPLEXER\X64\DEBUG\MULTIPLEXER.OBJ
^C:\USERS\ASLGU\DOCUMENTS\VISUAL STUDIO 2017\PROJECTS\MULTIPLEXER\MULTIPLEXER\STDAFX.CPP
C:\USERS\ASLGU\DOCUMENTS\VISUAL STUDIO 2017\PROJECTS\MULTIPLEXER\MULTIPLEXER\X64\DEBUG\VC141.PDB
